werk.statt.codes: Similarity of public submissions to Austria's amendment of the epidemic law
…
 If we take 0.7 as a cut-off point, we can conclude that 27.71% of all submission pairs (!) were very similar. Note that among these submission pairs, there is no pair in which not at least one document contains our key phrase Tr und Tor. On the other end of the scale, we see that the largest junk of non-similar pairs (18.14% in the interval [0, 0.1)) consists of pairs of one document with the key phrase and the other document without it.

Note that I removed the key phrase before calculating the cosine similarity. Hence, the high degree of similarity of submission pairs containing the key phrase does not originate from the key phrase, but from the rest of the texts!

Code: Plot composition per cosine interval 

df_bar_sim %>% 
  group_by(sim_interval, indicator) %>% 
              summarise(sum_interval=sum(interval_rel, na.rm=T)) %>% 
              mutate(sum_indidicator_rel=sum_interval/sum(sum_interval))

# A tibble: 30 x 4
# Groups:   sim_interval [10]
   sim_interval indicator                           sum_interval
   <fct>        <fct>                                      <dbl>
 1 [0,0.1)      both submissions with key phrase         0.00985
 2 [0,0.1)      one submission without key phrase        0.181  
 3 [0,0.1)      both submissions without key phrase      0.0604 
 4 [0.1,0.2)    both submissions with key phrase         0.0161 
 5 [0.1,0.2)    one submission without key phrase        0.0942 
 6 [0.1,0.2)    both submissions without key phrase      0.0278 
 7 [0.2,0.3)    both submissions with key phrase         0.0232 
 8 [0.2,0.3)    one submission without key phrase        0.0415 
 9 [0.2,0.3)    both submissions without key phrase      0.00911
10 [0.3,0.4)    both submissions with key phrase         0.0285 
   sum_indidicator_rel
                 <dbl>
 1              0.0391
 2              0.721 
 3              0.240 
 4              0.117 
 5              0.682 
 6              0.201 
 7              0.315 
 8              0.562 
 9              0.123 
10              0.483 
# ... with 20 more rows
…
